{
  "urn" : "local:kbagstad:im.data.usa:ssurgo_organic_carbon",
  "version" : "0.0.1",
  "adapterType" : "wcs",
  "localPath" : "im.data.usa/resources/ssurgo_organic_carbon.v0.0.1",
  "geometry" : "S2(209185,93901){bbox=[-126.14127685004297 -65.57535280502803 23.327276043765295 50.514857429111316],proj=EPSG:4326}",
  "projectName" : "im.data.usa",
  "localName" : "ssurgo_organic_carbon",
  "type" : "NUMBER",
  "resourceTimestamp" : 1565032441035,
  "metadata" : {
    "im:keywords" : "Soil carbon, SSURGO",
    "dc:comment" : "Data are from the original gridded SSURGO database, at 30 m spatial resolution; received October 2011 based on SSURGO data from the NRCS Soil Data Mart, December 30, 2009.",
    "im:notes" : "",
    "dc:title" : "SSURGO soil organic carbon, 0-100 cm",
    "dc:url" : "https://www.nrcs.usda.gov/wps/portal/nrcs/detail/soils/home/?cid=nrcs142p2_053628",
    "dc:creator" : "",
    "im:thematic-area" : "Soil",
    "dc:originator" : "U.S. Department of Agriculture-Natural Resource Conservation Service",
    "im:geographic-area" : "",
    "dc:source" : "Soil Survey Staff. Gridded Soil Survey Geographic (gSSURGO) Database for the United States of America and the Territories, Commonwealths, and Island Nations served by the USDA-NRCS. United States Department of Agriculture, Natural Resources Conservation Service. Available online at https://gdg.sc.egov.usda.gov/"
  },
  "parameters" : {
    "wcsIdentifier" : "ARIES__usa_SSURGO_SOC",
    "serviceUrl" : "https://www.sciencebase.gov/geoserver/ows",
    "band" : "0",
    "nodata" : "65536.0",
    "wcsVersion" : "2.0.1"
  },
  "localPaths" : [ ],
  "history" : [ ],
  "notifications" : [ ],
  "attributes" : [ ],
  "spatialExtent" : {
    "east" : -65.57535280502803,
    "west" : -126.14127685004297,
    "north" : 50.514857429111316,
    "south" : 23.327276043765295,
    "gridResolution" : null,
    "gridUnit" : null
  },
  "dependencies" : null,
  "outputs" : null,
  "exportFormats" : { }
}