{
  "urn" : "local:kbagstad:im.data.usa:boundary_conus_land_water",
  "version" : "0.0.1",
  "adapterType" : "wfs",
  "localPath" : "im.data.usa/resources/boundary_conus_land_water.v0.0.1",
  "geometry" : "#s1(1){bbox=[-129.3000479793307 -65.69971857954877 23.833333333166877 49.38329697017909],proj=EPSG:4326}",
  "projectName" : "im.data.usa",
  "localName" : "boundary_conus_land_water",
  "type" : "OBJECT",
  "resourceTimestamp" : 1565297461931,
  "metadata" : {
    "im:keywords" : "Boundaries",
    "dc:comment" : "Shapefile with CONUS boundaries including land, Exclusive Economic Zones, and the Great Lakes to the Canadian border.",
    "im:notes" : "",
    "dc:title" : "USA boundary - Continental U.S., EEZs, Great Lakes",
    "dc:url" : "",
    "dc:creator" : "",
    "im:thematic-area" : "Socio-ecological",
    "dc:originator" : "",
    "im:geographic-area" : "",
    "dc:source" : ""
  },
  "parameters" : {
    "computeUnion" : "false",
    "serviceUrl" : "https://www.sciencebase.gov/geoserver/ows",
    "wfsVersion" : "1.0.0",
    "computeHull" : "false",
    "wfsIdentifier" : "ARIES:usa_boundary_marine",
    "sanitize" : "false"
  },
  "localPaths" : [ ],
  "history" : [ ],
  "notifications" : [ ],
  "attributes" : [ {
    "name" : "BUFF_DIST",
    "type" : "NUMBER",
    "key" : false,
    "optional" : true,
    "exampleValue" : null
  }, {
    "name" : "ORIG_FID",
    "type" : "NUMBER",
    "key" : false,
    "optional" : true,
    "exampleValue" : null
  }, {
    "name" : "Shape_Leng",
    "type" : "NUMBER",
    "key" : false,
    "optional" : true,
    "exampleValue" : null
  }, {
    "name" : "Shape_Area",
    "type" : "NUMBER",
    "key" : false,
    "optional" : true,
    "exampleValue" : null
  } ],
  "spatialExtent" : {
    "east" : -65.69971857954877,
    "west" : -129.3000479793307,
    "north" : 49.38329697017909,
    "south" : 23.833333333166877,
    "gridResolution" : null,
    "gridUnit" : null
  },
  "dependencies" : null,
  "outputs" : null,
  "exportFormats" : { }
}