{
  "urn" : "local:kbagstad:im.data.usa:elk_refuge_dissolve",
  "version" : "0.0.1",
  "adapterType" : "vector",
  "localPath" : "im.data.usa/resources/elk_refuge_dissolve.v0.0.1",
  "geometry" : "#s2(1){bbox=[-110.76328148052737 -110.5829835018259 43.479678425417795 43.63996709134414],proj=EPSG:4326}",
  "projectName" : "im.data.usa",
  "localName" : "elk_refuge_dissolve.shp",
  "type" : "OBJECT",
  "resourceTimestamp" : 1620162810673,
  "metadata" : {
    "im:keywords" : "features,elk_refuge_dissolve",
    "dc:title" : "elk_refuge_dissolve"
  },
  "parameters" : { },
  "localPaths" : [ "im.data.usa/resources/elk_refuge_dissolve.v0.0.1/elk_refuge_dissolve.shx", "im.data.usa/resources/elk_refuge_dissolve.v0.0.1/elk_refuge_dissolve.sbx", "im.data.usa/resources/elk_refuge_dissolve.v0.0.1/elk_refuge_dissolve.prj", "im.data.usa/resources/elk_refuge_dissolve.v0.0.1/elk_refuge_dissolve.dbf", "im.data.usa/resources/elk_refuge_dissolve.v0.0.1/elk_refuge_dissolve.shp", "im.data.usa/resources/elk_refuge_dissolve.v0.0.1/elk_refuge_dissolve.shp.xml" ],
  "history" : [ ],
  "notifications" : [ ],
  "attributes" : {
    "name" : "Id",
    "type" : "NUMBER",
    "key" : false,
    "optional" : true,
    "exampleValue" : null,
    "index" : 0
  },
  "spatialExtent" : {
    "east" : -110.5829835018259,
    "west" : -110.76328148052737,
    "north" : 43.63996709134414,
    "south" : 43.479678425417795,
    "gridResolution" : null,
    "gridUnit" : null
  },
  "dependencies" : null,
  "outputs" : null,
  "categorizables" : [ ],
  "exportFormats" : {
    "shp" : "ESRI shapefile"
  }
}