{
  "urn" : "local:kbagstad:im.data.usa:puyallup",
  "version" : "0.0.1",
  "adapterType" : "vector",
  "localPath" : "im.data.usa/resources/puyallup.v0.0.1",
  "geometry" : "#s2(1){bbox=[-122.4445448404751 -122.3021610959789 47.186862378901225 47.320268493156334],proj=EPSG:4326}",
  "projectName" : "im.data.usa",
  "localName" : "puyallup.shp",
  "type" : "OBJECT",
  "resourceTimestamp" : 1621266954085,
  "metadata" : {
    "im:keywords" : "features,puyallup",
    "dc:title" : "puyallup"
  },
  "parameters" : { },
  "localPaths" : [ "im.data.usa/resources/puyallup.v0.0.1/puyallup.shx", "im.data.usa/resources/puyallup.v0.0.1/puyallup.prj", "im.data.usa/resources/puyallup.v0.0.1/puyallup.dbf", "im.data.usa/resources/puyallup.v0.0.1/puyallup.sbx", "im.data.usa/resources/puyallup.v0.0.1/puyallup.shp.xml", "im.data.usa/resources/puyallup.v0.0.1/puyallup.shp" ],
  "history" : [ ],
  "notifications" : [ ],
  "attributes" : [ {
    "name" : "LARID",
    "type" : "TEXT",
    "key" : false,
    "optional" : true,
    "exampleValue" : null,
    "index" : 0
  }, {
    "name" : "LARName",
    "type" : "TEXT",
    "key" : false,
    "optional" : true,
    "exampleValue" : null,
    "index" : 0
  }, {
    "name" : "GISAcres",
    "type" : "NUMBER",
    "key" : false,
    "optional" : true,
    "exampleValue" : null,
    "index" : 0
  }, {
    "name" : "Classifica",
    "type" : "TEXT",
    "key" : false,
    "optional" : true,
    "exampleValue" : null,
    "index" : 0
  }, {
    "name" : "Shape_STAr",
    "type" : "NUMBER",
    "key" : false,
    "optional" : true,
    "exampleValue" : null,
    "index" : 0
  }, {
    "name" : "Shape_STLe",
    "type" : "NUMBER",
    "key" : false,
    "optional" : true,
    "exampleValue" : null,
    "index" : 0
  } ],
  "spatialExtent" : {
    "east" : -122.3021610959789,
    "west" : -122.4445448404751,
    "north" : 47.320268493156334,
    "south" : 47.186862378901225,
    "gridResolution" : null,
    "gridUnit" : null
  },
  "dependencies" : null,
  "outputs" : null,
  "categorizables" : [ ],
  "exportFormats" : {
    "shp" : "ESRI shapefile"
  }
}